%YAML 1.1
%TAG !u! tag:unity3d.com,2011:
--- !u!1 &6948760619187543734
GameObject:
  m_ObjectHideFlags: 0
  m_CorrespondingSourceObject: {fileID: 0}
  m_PrefabInstance: {fileID: 0}
  m_PrefabAsset: {fileID: 0}
  serializedVersion: 6
  m_Component:
  - component: {fileID: 9115912924063955750}
  m_Layer: 0
  m_Name: 605
  m_TagString: Untagged
  m_Icon: {fileID: 0}
  m_NavMeshLayer: 0
  m_StaticEditorFlags: 0
  m_IsActive: 1
--- !u!4 &9115912924063955750
Transform:
  m_ObjectHideFlags: 0
  m_CorrespondingSourceObject: {fileID: 0}
  m_PrefabInstance: {fileID: 0}
  m_PrefabAsset: {fileID: 0}
  m_GameObject: {fileID: 6948760619187543734}
  m_LocalRotation: {x: 0, y: 0, z: 0, w: 1}
  m_LocalPosition: {x: -5.984, y: 10.04587, z: -7.145}
  m_LocalScale: {x: 1.152354, y: 1, z: 1}
  m_ConstrainProportionsScale: 0
  m_Children:
  - {fileID: 2008158669741030048}
  m_Father: {fileID: 0}
  m_RootOrder: 0
  m_LocalEulerAnglesHint: {x: 0, y: 0, z: 0}
--- !u!1001 &2165637035498418678
PrefabInstance:
  m_ObjectHideFlags: 0
  serializedVersion: 2
  m_Modification:
    m_TransformParent: {fileID: 9115912924063955750}
    m_Modifications:
    - target: {fileID: 419831761604234070, guid: 3aca5c4d1c860f74eabf793e41a9fcc9, type: 3}
      propertyPath: m_RootOrder
      value: 0
      objectReference: {fileID: 0}
    - target: {fileID: 419831761604234070, guid: 3aca5c4d1c860f74eabf793e41a9fcc9, type: 3}
      propertyPath: m_LocalScale.x
      value: 0.71168995
      objectReference: {fileID: 0}
    - target: {fileID: 419831761604234070, guid: 3aca5c4d1c860f74eabf793e41a9fcc9, type: 3}
      propertyPath: m_LocalScale.y
      value: 0.5328766
      objectReference: {fileID: 0}
    - target: {fileID: 419831761604234070, guid: 3aca5c4d1c860f74eabf793e41a9fcc9, type: 3}
      propertyPath: m_LocalScale.z
      value: 0.366897
      objectReference: {fileID: 0}
    - target: {fileID: 419831761604234070, guid: 3aca5c4d1c860f74eabf793e41a9fcc9, type: 3}
      propertyPath: m_LocalPosition.x
      value: -4.1
      objectReference: {fileID: 0}
    - target: {fileID: 419831761604234070, guid: 3aca5c4d1c860f74eabf793e41a9fcc9, type: 3}
      propertyPath: m_LocalPosition.y
      value: -1.095
      objectReference: {fileID: 0}
    - target: {fileID: 419831761604234070, guid: 3aca5c4d1c860f74eabf793e41a9fcc9, type: 3}
      propertyPath: m_LocalPosition.z
      value: 6.2
      objectReference: {fileID: 0}
    - target: {fileID: 419831761604234070, guid: 3aca5c4d1c860f74eabf793e41a9fcc9, type: 3}
      propertyPath: m_LocalRotation.w
      value: 0.7071068
      objectReference: {fileID: 0}
    - target: {fileID: 419831761604234070, guid: 3aca5c4d1c860f74eabf793e41a9fcc9, type: 3}
      propertyPath: m_LocalRotation.x
      value: -0
      objectReference: {fileID: 0}
    - target: {fileID: 419831761604234070, guid: 3aca5c4d1c860f74eabf793e41a9fcc9, type: 3}
      propertyPath: m_LocalRotation.y
      value: 0.7071068
      objectReference: {fileID: 0}
    - target: {fileID: 419831761604234070, guid: 3aca5c4d1c860f74eabf793e41a9fcc9, type: 3}
      propertyPath: m_LocalRotation.z
      value: -0
      objectReference: {fileID: 0}
    - target: {fileID: 419831761604234070, guid: 3aca5c4d1c860f74eabf793e41a9fcc9, type: 3}
      propertyPath: m_LocalEulerAnglesHint.x
      value: 0
      objectReference: {fileID: 0}
    - target: {fileID: 419831761604234070, guid: 3aca5c4d1c860f74eabf793e41a9fcc9, type: 3}
      propertyPath: m_LocalEulerAnglesHint.y
      value: 90
      objectReference: {fileID: 0}
    - target: {fileID: 419831761604234070, guid: 3aca5c4d1c860f74eabf793e41a9fcc9, type: 3}
      propertyPath: m_LocalEulerAnglesHint.z
      value: 0
      objectReference: {fileID: 0}
    - target: {fileID: 1538626793230783325, guid: 3aca5c4d1c860f74eabf793e41a9fcc9, type: 3}
      propertyPath: m_Materials.Array.data[0]
      value: 
      objectReference: {fileID: 2100000, guid: 454933586c7f4eb449888549dd31fef9, type: 2}
    - target: {fileID: 4122819972902901676, guid: 3aca5c4d1c860f74eabf793e41a9fcc9, type: 3}
      propertyPath: m_LocalScale.z
      value: 0.25701222
      objectReference: {fileID: 0}
    - target: {fileID: 4122819972902901676, guid: 3aca5c4d1c860f74eabf793e41a9fcc9, type: 3}
      propertyPath: m_LocalPosition.x
      value: -0.13
      objectReference: {fileID: 0}
    - target: {fileID: 4122819972902901676, guid: 3aca5c4d1c860f74eabf793e41a9fcc9, type: 3}
      propertyPath: m_LocalPosition.y
      value: -0.319
      objectReference: {fileID: 0}
    - target: {fileID: 4122819972902901676, guid: 3aca5c4d1c860f74eabf793e41a9fcc9, type: 3}
      propertyPath: m_LocalPosition.z
      value: 2.01
      objectReference: {fileID: 0}
    - target: {fileID: 6114649919779462486, guid: 3aca5c4d1c860f74eabf793e41a9fcc9, type: 3}
      propertyPath: m_LocalScale.z
      value: 1.8110006
      objectReference: {fileID: 0}
    - target: {fileID: 6114649919779462486, guid: 3aca5c4d1c860f74eabf793e41a9fcc9, type: 3}
      propertyPath: m_LocalPosition.x
      value: -0.129
      objectReference: {fileID: 0}
    - target: {fileID: 6114649919779462486, guid: 3aca5c4d1c860f74eabf793e41a9fcc9, type: 3}
      propertyPath: m_LocalPosition.y
      value: 0.176
      objectReference: {fileID: 0}
    - target: {fileID: 9046834139411974274, guid: 3aca5c4d1c860f74eabf793e41a9fcc9, type: 3}
      propertyPath: m_Name
      value: P605
      objectReference: {fileID: 0}
    m_RemovedComponents: []
  m_SourcePrefab: {fileID: 100100000, guid: 3aca5c4d1c860f74eabf793e41a9fcc9, type: 3}
--- !u!4 &2008158669741030048 stripped
Transform:
  m_CorrespondingSourceObject: {fileID: 419831761604234070, guid: 3aca5c4d1c860f74eabf793e41a9fcc9, type: 3}
  m_PrefabInstance: {fileID: 2165637035498418678}
  m_PrefabAsset: {fileID: 0}
